Create analysis from a design — create_analysis • analysistools
…
    Examples

create_analysis(
  design = srvyr::as_survey(analysistools_MSNA_template_data),
  loa = analysistools_MSNA_template_loa,
  sm_separator = "/"
)
#> Joining with `by = join_by(admin1)`
#> Joining with `by = join_by(wash_drinkingwatersource)`
#> Joining with `by = join_by(admin1, wash_drinkingwatersource)`
#>  ■■■■■■■■■■■■■■■■■■■■■■■■■■■■■     92% |  ETA:  0s
#> $results_table
#> # A tibble: 143 × 13
#>    analysis_type analysis_var analysis_var_value group_var group_var_value  stat
#>  * <chr>         <chr>        <chr>              <chr>     <chr>           <dbl>
#>  1 prop_select_… admin1       admin1a            NA        NA               0.31
#>  2 prop_select_… admin1       admin1b            NA        NA               0.27
#>  3 prop_select_… admin1       admin1c            NA        NA               0.42
#>  4 mean          income_v1_s… NA                 NA        NA              20.0 
#>  5 median        income_v1_s… NA                 NA        NA              20   
#>  6 mean          expenditure… NA                 NA        NA              20.1 
#>  7 median        expenditure… NA                 NA        NA              20   
#>  8 prop_select_… wash_drinki… borehole_tubewell  NA        NA               0.04
#>  9 prop_select_… wash_drinki… bottled_water      NA        NA               0.08
#> 10 prop_select_… wash_drinki… cart_with_tank_dr… NA        NA               0.05
#> # ℹ 133 more rows
#> # ℹ 7 more variables: stat_low <dbl>, stat_upp <dbl>, n <dbl>, n_total <dbl>,
#> #   n_w <dbl>, n_w_total <dbl>, analysis_key <chr>
#> 
#> $dataset
#> # A tibble: 100 × 449
#>    instance_name enum_gender hoh   respondent_able_to_answer respondent_age
#>    <lgl>         <chr>       <chr> <chr>                              <dbl>
#>  1 NA            male        no    yes                                   22
#>  2 NA            male        no    no                                    20
#>  3 NA            female      yes   yes                                   20
#>  4 NA            female      no    no                                    20
#>  5 NA            female      no    yes                                   21
#>  6 NA            female      no    no                                    22
#>  7 NA            other       yes   yes                                   18
#>  8 NA            male        yes   no                                    20
#>  9 NA            female      yes   yes                                   22
#> 10 NA            other       no    yes                                   20
#> # ℹ 90 more rows
#> # ℹ 444 more variables: respondent_gender <chr>, hoh_age <dbl>,
#> #   hoh_gender <chr>, hoh_civil_status <chr>, hoh_civil_status_other <chr>,
#> #   admin1 <chr>, admin2 <chr>, admin3 <chr>, admin4 <chr>, cluster_id <chr>,
#> #   hh_size <dbl>, parent_instance_name <lgl>, person_id <lgl>,
#> #   ind_gender <chr>, ind_age <dbl>, ind_relationship_hoh <chr>,
#> #   ind_relationship_hoh_other <chr>, ind_pos <lgl>, hh_number_men <dbl>, …
…
#> 11               median                   expenditure_debt    admin1  0.95
#> 12      prop_select_one           wash_drinkingwatersource    admin1  0.95
#> 13 prop_select_multiple edu_learning_conditions_reasons_v1    admin1  0.95
#> 
create_analysis(
  design = srvyr::as_survey(analysistools_MSNA_template_data),
  loa = analysistools_MSNA_template_loa_with_ratio,
  sm_separator = "/"
)
#> Joining with `by = join_by(admin1)`
#> Joining with `by = join_by(wash_drinkingwatersource)`
#> Joining with `by = join_by(admin1, wash_drinkingwatersource)`
#>  ■■■■■■■■■■■■■■■■■■■■■■■■■■■■■     93% |  ETA:  0s
#> $results_table
#> # A tibble: 147 × 13
#>    analysis_type   analysis_var     analysis_var_value group_var group_var_value
#>  * <chr>           <chr>            <chr>              <chr>     <chr>          
#>  1 prop_select_one admin1           admin1a            NA        NA             
#>  2 prop_select_one admin1           admin1b            NA        NA             
#>  3 prop_select_one admin1           admin1c            NA        NA             
#>  4 mean            income_v1_salar… NA                 NA        NA             
#>  5 median          income_v1_salar… NA                 NA        NA             
#>  6 mean            expenditure_debt NA                 NA        NA             
#>  7 median          expenditure_debt NA                 NA        NA             
#>  8 ratio           income_v1_salar… NA %/% NA          NA        NA             
#>  9 prop_select_one wash_drinkingwa… borehole_tubewell  NA        NA             
#> 10 prop_select_one wash_drinkingwa… bottled_water      NA        NA             
#> # ℹ 137 more rows
#> # ℹ 8 more variables: stat <dbl>, stat_low <dbl>, stat_upp <dbl>, n <dbl>,
#> #   n_total <dbl>, n_w <dbl>, n_w_total <dbl>, analysis_key <chr>
#> 
#> $dataset
#> # A tibble: 100 × 449
#>    instance_name enum_gender hoh   respondent_able_to_answer respondent_age
#>    <lgl>         <chr>       <chr> <chr>                              <dbl>
#>  1 NA            male        no    yes                                   22
#>  2 NA            male        no    no                                    20
#>  3 NA            female      yes   yes                                   20
#>  4 NA            female      no    no                                    20
#>  5 NA            female      no    yes                                   21
#>  6 NA            female      no    no                                    22
#>  7 NA            other       yes   yes                                   18
#>  8 NA            male        yes   no                                    20
#>  9 NA            female      yes   yes                                   22
#> 10 NA            other       no    yes                                   20
#> # ℹ 90 more rows
#> # ℹ 444 more variables: respondent_gender <chr>, hoh_age <dbl>,
#> #   hoh_gender <chr>, hoh_civil_status <chr>, hoh_civil_status_other <chr>,
#> #   admin1 <chr>, admin2 <chr>, admin3 <chr>, admin4 <chr>, cluster_id <chr>,
#> #   hh_size <dbl>, parent_instance_name <lgl>, person_id <lgl>,
#> #   ind_gender <chr>, ind_age <dbl>, ind_relationship_hoh <chr>,
#> #   ind_relationship_hoh_other <chr>, ind_pos <lgl>, hh_number_men <dbl>, …
…
  "expenditure_debt",
  "wash_drinkingwatersource"
)]
create_analysis(
  design = srvyr::as_survey(shorter_df),
  group_var = "admin1"
)
#> Joining with `by = join_by(type)`
#> Joining with `by = join_by(admin1)`
#> Joining with `by = join_by(admin2)`
#> Joining with `by = join_by(wash_drinkingwatersource)`
#> Joining with `by = join_by(admin1, admin2)`
#> Joining with `by = join_by(admin1, wash_drinkingwatersource)`
#> $results_table
#> # A tibble: 87 × 13
#>    analysis_type analysis_var analysis_var_value group_var group_var_value  stat
#>  * <chr>         <chr>        <chr>              <chr>     <chr>           <dbl>
#>  1 prop_select_… admin1       admin1a            NA        NA               0.31
#>  2 prop_select_… admin1       admin1b            NA        NA               0.27
#>  3 prop_select_… admin1       admin1c            NA        NA               0.42
#>  4 prop_select_… admin2       admin2a            NA        NA               0.3 
#>  5 prop_select_… admin2       admin2b            NA        NA               0.39
#>  6 prop_select_… admin2       admin2c            NA        NA               0.31
#>  7 mean          expenditure… NA                 NA        NA              20.1 
#>  8 median        expenditure… NA                 NA        NA              20   
#>  9 prop_select_… wash_drinki… borehole_tubewell  NA        NA               0.04
#> 10 prop_select_… wash_drinki… bottled_water      NA        NA               0.08
#> # ℹ 77 more rows
#> # ℹ 7 more variables: stat_low <dbl>, stat_upp <dbl>, n <int>, n_total <dbl>,
#> #   n_w <dbl>, n_w_total <dbl>, analysis_key <chr>
#> 
#> $dataset
#> # A tibble: 100 × 4
#>    admin1  admin2  expenditure_debt wash_drinkingwatersource
#>    <chr>   <chr>              <dbl> <chr>                   
#>  1 admin1b admin2a               22 tanker_trucks           
#>  2 admin1c admin2b               18 bottled_water           
#>  3 admin1c admin2b               18 water_kiosk             
#>  4 admin1c admin2b               23 dont_know               
#>  5 admin1c admin2a               20 dont_know               
#>  6 admin1c admin2b               23 water_kiosk             
#>  7 admin1c admin2a               19 dont_know               
#>  8 admin1a admin2a               22 bottled_water           
#>  9 admin1c admin2c               21 cart_with_tank_drum     
#> 10 admin1b admin2b               25 piped_into_compound     
#> # ℹ 90 more rows
…
#> 7            mean         expenditure_debt    admin1  0.95
#> 8          median         expenditure_debt    admin1  0.95
#> 9 prop_select_one wash_drinkingwatersource    admin1  0.95
#> 
create_analysis(
  design = srvyr::as_survey(shorter_df),
  group_var = "admin1, admin2"
)
#> Joining with `by = join_by(type)`
#> Joining with `by = join_by(admin1)`
#> Joining with `by = join_by(admin2)`
#> Joining with `by = join_by(wash_drinkingwatersource)`
#> Joining with `by = join_by(admin1, admin2, wash_drinkingwatersource)`
#> $results_table
#> # A tibble: 117 × 13
#>    analysis_type analysis_var analysis_var_value group_var group_var_value  stat
#>  * <chr>         <chr>        <chr>              <chr>     <chr>           <dbl>
#>  1 prop_select_… admin1       admin1a            NA        NA               0.31
#>  2 prop_select_… admin1       admin1b            NA        NA               0.27
#>  3 prop_select_… admin1       admin1c            NA        NA               0.42
#>  4 prop_select_… admin2       admin2a            NA        NA               0.3 
#>  5 prop_select_… admin2       admin2b            NA        NA               0.39
#>  6 prop_select_… admin2       admin2c            NA        NA               0.31
#>  7 mean          expenditure… NA                 NA        NA              20.1 
#>  8 median        expenditure… NA                 NA        NA              20   
#>  9 prop_select_… wash_drinki… borehole_tubewell  NA        NA               0.04
#> 10 prop_select_… wash_drinki… bottled_water      NA        NA               0.08
#> # ℹ 107 more rows
#> # ℹ 7 more variables: stat_low <dbl>, stat_upp <dbl>, n <int>, n_total <dbl>,
#> #   n_w <dbl>, n_w_total <dbl>, analysis_key <chr>
#> 
#> $dataset
#> # A tibble: 100 × 4
#>    admin1  admin2  expenditure_debt wash_drinkingwatersource
#>    <chr>   <chr>              <dbl> <chr>                   
#>  1 admin1b admin2a               22 tanker_trucks           
#>  2 admin1c admin2b               18 bottled_water           
#>  3 admin1c admin2b               18 water_kiosk             
#>  4 admin1c admin2b               23 dont_know               
#>  5 admin1c admin2a               20 dont_know               
#>  6 admin1c admin2b               23 water_kiosk             
#>  7 admin1c admin2a               19 dont_know               
#>  8 admin1a admin2a               22 bottled_water           
#>  9 admin1c admin2c               21 cart_with_tank_drum     
#> 10 admin1b admin2b               25 piped_into_compound     
#> # ℹ 90 more rows
…
#> 
create_analysis(
  design = srvyr::as_survey(shorter_df),
  group_var = c("admin1", "admin2")
)
#> Joining with `by = join_by(type)`
#> Joining with `by = join_by(admin1)`
#> Joining with `by = join_by(admin2)`
#> Joining with `by = join_by(wash_drinkingwatersource)`
#> Joining with `by = join_by(admin1, admin2)`
#> Joining with `by = join_by(admin1, wash_drinkingwatersource)`
#> Joining with `by = join_by(admin2, admin1)`
#> Joining with `by = join_by(admin2, wash_drinkingwatersource)`
#> $results_table
#> # A tibble: 145 × 13
#>    analysis_type analysis_var analysis_var_value group_var group_var_value  stat
#>  * <chr>         <chr>        <chr>              <chr>     <chr>           <dbl>
#>  1 prop_select_… admin1       admin1a            NA        NA               0.31
#>  2 prop_select_… admin1       admin1b            NA        NA               0.27
#>  3 prop_select_… admin1       admin1c            NA        NA               0.42
#>  4 prop_select_… admin2       admin2a            NA        NA               0.3 
#>  5 prop_select_… admin2       admin2b            NA        NA               0.39
#>  6 prop_select_… admin2       admin2c            NA        NA               0.31
#>  7 mean          expenditure… NA                 NA        NA              20.1 
#>  8 median        expenditure… NA                 NA        NA              20   
#>  9 prop_select_… wash_drinki… borehole_tubewell  NA        NA               0.04
#> 10 prop_select_… wash_drinki… bottled_water      NA        NA               0.08
#> # ℹ 135 more rows
#> # ℹ 7 more variables: stat_low <dbl>, stat_upp <dbl>, n <int>, n_total <dbl>,
#> #   n_w <dbl>, n_w_total <dbl>, analysis_key <chr>
#> 
#> $dataset
#> # A tibble: 100 × 4
#>    admin1  admin2  expenditure_debt wash_drinkingwatersource
#>    <chr>   <chr>              <dbl> <chr>                   
#>  1 admin1b admin2a               22 tanker_trucks           
#>  2 admin1c admin2b               18 bottled_water           
#>  3 admin1c admin2b               18 water_kiosk             
#>  4 admin1c admin2b               23 dont_know               
#>  5 admin1c admin2a               20 dont_know               
#>  6 admin1c admin2b               23 water_kiosk             
#>  7 admin1c admin2a               19 dont_know               
#>  8 admin1a admin2a               22 bottled_water           
#>  9 admin1c admin2c               21 cart_with_tank_drum     
#> 10 admin1b admin2b               25 piped_into_compound     
#> # ℹ 90 more rows
…
